-- Merging decision tree log ---
manifest
ADDED from C:\scripts\LayoutGroup\app\src\main\AndroidManifest.xml:2:1-24:12
INJECTED from C:\scripts\LayoutGroup\app\src\main\AndroidManifest.xml:2:1-24:12
INJECTED from C:\scripts\LayoutGroup\app\src\main\AndroidManifest.xml:2:1-24:12
INJECTED from C:\scripts\LayoutGroup\app\src\main\AndroidManifest.xml:2:1-24:12
MERGED from [com.android.support:design:26.1.0] C:\Users\Allef\.gradle\caches\transforms-1\files-1.1\design-26.1.0.aar\e46015644b85a54919ccab381f94b2d1\AndroidManifest.xml:17:1-31:12
MERGED from [com.android.support:appcompat-v7:26.1.0] C:\Users\Allef\.gradle\caches\transforms-1\files-1.1\appcompat-v7-26.1.0.aar\16a53fc188290e8f469dbf151aa7c2a7\AndroidManifest.xml:17:1-31:12
MERGED from [com.android.support.constraint:constraint-layout:1.0.2] C:\Users\Allef\.gradle\caches\transforms-1\files-1.1\constraint-layout-1.0.2.aar\26831463cbd6e223f656be9b0eb9eb92\AndroidManifest.xml:2:1-11:12
MERGED from [com.android.support:animated-vector-drawable:26.1.0] C:\Users\Allef\.gradle\caches\transforms-1\files-1.1\animated-vector-drawable-26.1.0.aar\8edf31d49643e4445efb72900fc11185\AndroidManifest.xml:17:1-28:12
MERGED from [com.android.support:support-vector-drawable:26.1.0] C:\Users\Allef\.gradle\caches\transforms-1\files-1.1\support-vector-drawable-26.1.0.aar\87490cc41b949d456ff45eb4c02be2ce\AndroidManifest.xml:17:1-28:12
MERGED from [com.android.support:recyclerview-v7:26.1.0] C:\Users\Allef\.gradle\caches\transforms-1\files-1.1\recyclerview-v7-26.1.0.aar\8913cdb4f61cbadd6bd8afe0d9915080\AndroidManifest.xml:17:1-28:12
MERGED from [com.android.support:transition:26.1.0] C:\Users\Allef\.gradle\caches\transforms-1\files-1.1\transition-26.1.0.aar\f2c2f3a50420d10fcc73f9a787bbb0aa\AndroidManifest.xml:17:1-28:12
MERGED from [com.android.support:support-v4:26.1.0] C:\Users\Allef\.gradle\caches\transforms-1\files-1.1\support-v4-26.1.0.aar\ffd42b631d4e2b50ed12801de9f0762d\AndroidManifest.xml:17:1-31:12
MERGED from [com.android.support:support-media-compat:26.1.0] C:\Users\Allef\.gradle\caches\transforms-1\files-1.1\support-media-compat-26.1.0.aar\c33417ff3eca55e137737642bc5f390f\AndroidManifest.xml:17:1-31:12
MERGED from [com.android.support:support-fragment:26.1.0] C:\Users\Allef\.gradle\caches\transforms-1\files-1.1\support-fragment-26.1.0.aar\b9510132c6ca0bc2add2b445cc863d26\AndroidManifest.xml:17:1-31:12
MERGED from [com.android.support:support-core-utils:26.1.0] C:\Users\Allef\.gradle\caches\transforms-1\files-1.1\support-core-utils-26.1.0.aar\e1febb2a7d2065c05429714382b98ad4\AndroidManifest.xml:17:1-31:12
MERGED from [com.android.support:support-core-ui:26.1.0] C:\Users\Allef\.gradle\caches\transforms-1\files-1.1\support-core-ui-26.1.0.aar\6c2964ab02483fb9c24c468f013346ed\AndroidManifest.xml:17:1-31:12
MERGED from [com.android.support:support-compat:26.1.0] C:\Users\Allef\.gradle\caches\transforms-1\files-1.1\support-compat-26.1.0.aar\7876363f75790ac655bb0f59b83110cc\AndroidManifest.xml:17:1-31:12
MERGED from [android.arch.lifecycle:runtime:1.0.0] C:\Users\Allef\.gradle\caches\transforms-1\files-1.1\runtime-1.0.0.aar\2220491bd8190290d7732bfebb37260e\AndroidManifest.xml:17:1-30:12
INJECTED from C:\scripts\LayoutGroup\app\src\main\AndroidManifest.xml:2:1-24:12
INJECTED from C:\scripts\LayoutGroup\app\src\main\AndroidManifest.xml:2:1-24:12
INJECTED from C:\scripts\LayoutGroup\app\src\main\AndroidManifest.xml:2:1-24:12
	package
		ADDED from C:\scripts\LayoutGroup\app\src\main\AndroidManifest.xml:3:5-44
		INJECTED from C:\scripts\LayoutGroup\app\src\main\AndroidManifest.xml
		INJECTED from C:\scripts\LayoutGroup\app\src\main\AndroidManifest.xml
	android:versionName
		INJECTED from C:\scripts\LayoutGroup\app\src\main\AndroidManifest.xml
		ADDED from C:\scripts\LayoutGroup\app\src\main\AndroidManifest.xml:2:1-24:12
		INJECTED from C:\scripts\LayoutGroup\app\src\main\AndroidManifest.xml
	android:versionCode
		INJECTED from C:\scripts\LayoutGroup\app\src\main\AndroidManifest.xml
		ADDED from C:\scripts\LayoutGroup\app\src\main\AndroidManifest.xml:2:1-24:12
		INJECTED from C:\scripts\LayoutGroup\app\src\main\AndroidManifest.xml
	xmlns:android
		ADDED from C:\scripts\LayoutGroup\app\src\main\AndroidManifest.xml:2:11-69
application
ADDED from C:\scripts\LayoutGroup\app\src\main\AndroidManifest.xml:5:5-22:19
MERGED from [com.android.support:design:26.1.0] C:\Users\Allef\.gradle\caches\transforms-1\files-1.1\design-26.1.0.aar\e46015644b85a54919ccab381f94b2d1\AndroidManifest.xml:25:5-29:19
MERGED from [com.android.support:design:26.1.0] C:\Users\Allef\.gradle\caches\transforms-1\files-1.1\design-26.1.0.aar\e46015644b85a54919ccab381f94b2d1\AndroidManifest.xml:25:5-29:19
MERGED from [com.android.support:appcompat-v7:26.1.0] C:\Users\Allef\.gradle\caches\transforms-1\files-1.1\appcompat-v7-26.1.0.aar\16a53fc188290e8f469dbf151aa7c2a7\AndroidManifest.xml:25:5-29:19
MERGED from [com.android.support:appcompat-v7:26.1.0] C:\Users\Allef\.gradle\caches\transforms-1\files-1.1\appcompat-v7-26.1.0.aar\16a53fc188290e8f469dbf151aa7c2a7\AndroidManifest.xml:25:5-29:19
MERGED from [com.android.support.constraint:constraint-layout:1.0.2] C:\Users\Allef\.gradle\caches\transforms-1\files-1.1\constraint-layout-1.0.2.aar\26831463cbd6e223f656be9b0eb9eb92\AndroidManifest.xml:9:5-20
MERGED from [com.android.support.constraint:constraint-layout:1.0.2] C:\Users\Allef\.gradle\caches\transforms-1\files-1.1\constraint-layout-1.0.2.aar\26831463cbd6e223f656be9b0eb9eb92\AndroidManifest.xml:9:5-20
MERGED from [com.android.support:animated-vector-drawable:26.1.0] C:\Users\Allef\.gradle\caches\transforms-1\files-1.1\animated-vector-drawable-26.1.0.aar\8edf31d49643e4445efb72900fc11185\AndroidManifest.xml:22:5-26:19
MERGED from [com.android.support:animated-vector-drawable:26.1.0] C:\Users\Allef\.gradle\caches\transforms-1\files-1.1\animated-vector-drawable-26.1.0.aar\8edf31d49643e4445efb72900fc11185\AndroidManifest.xml:22:5-26:19
MERGED from [com.android.support:support-vector-drawable:26.1.0] C:\Users\Allef\.gradle\caches\transforms-1\files-1.1\support-vector-drawable-26.1.0.aar\87490cc41b949d456ff45eb4c02be2ce\AndroidManifest.xml:22:5-26:19
MERGED from [com.android.support:support-vector-drawable:26.1.0] C:\Users\Allef\.gradle\caches\transforms-1\files-1.1\support-vector-drawable-26.1.0.aar\87490cc41b949d456ff45eb4c02be2ce\AndroidManifest.xml:22:5-26:19
MERGED from [com.android.support:recyclerview-v7:26.1.0] C:\Users\Allef\.gradle\caches\transforms-1\files-1.1\recyclerview-v7-26.1.0.aar\8913cdb4f61cbadd6bd8afe0d9915080\AndroidManifest.xml:22:5-26:19
MERGED from [com.android.support:recyclerview-v7:26.1.0] C:\Users\Allef\.gradle\caches\transforms-1\files-1.1\recyclerview-v7-26.1.0.aar\8913cdb4f61cbadd6bd8afe0d9915080\AndroidManifest.xml:22:5-26:19
MERGED from [com.android.support:transition:26.1.0] C:\Users\Allef\.gradle\caches\transforms-1\files-1.1\transition-26.1.0.aar\f2c2f3a50420d10fcc73f9a787bbb0aa\AndroidManifest.xml:22:5-26:19
MERGED from [com.android.support:transition:26.1.0] C:\Users\Allef\.gradle\caches\transforms-1\files-1.1\transition-26.1.0.aar\f2c2f3a50420d10fcc73f9a787bbb0aa\AndroidManifest.xml:22:5-26:19
MERGED from [com.android.support:support-v4:26.1.0] C:\Users\Allef\.gradle\caches\transforms-1\files-1.1\support-v4-26.1.0.aar\ffd42b631d4e2b50ed12801de9f0762d\AndroidManifest.xml:25:5-29:19
MERGED from [com.android.support:support-v4:26.1.0] C:\Users\Allef\.gradle\caches\transforms-1\files-1.1\support-v4-26.1.0.aar\ffd42b631d4e2b50ed12801de9f0762d\AndroidManifest.xml:25:5-29:19
MERGED from [com.android.support:support-media-compat:26.1.0] C:\Users\Allef\.gradle\caches\transforms-1\files-1.1\support-media-compat-26.1.0.aar\c33417ff3eca55e137737642bc5f390f\AndroidManifest.xml:25:5-29:19
MERGED from [com.android.support:support-media-compat:26.1.0] C:\Users\Allef\.gradle\caches\transforms-1\files-1.1\support-media-compat-26.1.0.aar\c33417ff3eca55e137737642bc5f390f\AndroidManifest.xml:25:5-29:19
MERGED from [com.android.support:support-fragment:26.1.0] C:\Users\Allef\.gradle\caches\transforms-1\files-1.1\support-fragment-26.1.0.aar\b9510132c6ca0bc2add2b445cc863d26\AndroidManifest.xml:25:5-29:19
MERGED from [com.android.support:support-fragment:26.1.0] C:\Users\Allef\.gradle\caches\transforms-1\files-1.1\support-fragment-26.1.0.aar\b9510132c6ca0bc2add2b445cc863d26\AndroidManifest.xml:25:5-29:19
MERGED from [com.android.support:support-core-utils:26.1.0] C:\Users\Allef\.gradle\caches\transforms-1\files-1.1\support-core-utils-26.1.0.aar\e1febb2a7d2065c05429714382b98ad4\AndroidManifest.xml:25:5-29:19
MERGED from [com.android.support:support-core-utils:26.1.0] C:\Users\Allef\.gradle\caches\transforms-1\files-1.1\support-core-utils-26.1.0.aar\e1febb2a7d2065c05429714382b98ad4\AndroidManifest.xml:25:5-29:19
MERGED from [com.android.support:support-core-ui:26.1.0] C:\Users\Allef\.gradle\caches\transforms-1\files-1.1\support-core-ui-26.1.0.aar\6c2964ab02483fb9c24c468f013346ed\AndroidManifest.xml:25:5-29:19
MERGED from [com.android.support:support-core-ui:26.1.0] C:\Users\Allef\.gradle\caches\transforms-1\files-1.1\support-core-ui-26.1.0.aar\6c2964ab02483fb9c24c468f013346ed\AndroidManifest.xml:25:5-29:19
MERGED from [com.android.support:support-compat:26.1.0] C:\Users\Allef\.gradle\caches\transforms-1\files-1.1\support-compat-26.1.0.aar\7876363f75790ac655bb0f59b83110cc\AndroidManifest.xml:25:5-29:19
MERGED from [com.android.support:support-compat:26.1.0] C:\Users\Allef\.gradle\caches\transforms-1\files-1.1\support-compat-26.1.0.aar\7876363f75790ac655bb0f59b83110cc\AndroidManifest.xml:25:5-29:19
MERGED from [android.arch.lifecycle:runtime:1.0.0] C:\Users\Allef\.gradle\caches\transforms-1\files-1.1\runtime-1.0.0.aar\2220491bd8190290d7732bfebb37260e\AndroidManifest.xml:24:5-28:19
MERGED from [android.arch.lifecycle:runtime:1.0.0] C:\Users\Allef\.gradle\caches\transforms-1\files-1.1\runtime-1.0.0.aar\2220491bd8190290d7732bfebb37260e\AndroidManifest.xml:24:5-28:19
	android:supportsRtl
		ADDED from C:\scripts\LayoutGroup\app\src\main\AndroidManifest.xml:10:9-35
	android:label
		ADDED from C:\scripts\LayoutGroup\app\src\main\AndroidManifest.xml:8:9-41
	android:roundIcon
		ADDED from C:\scripts\LayoutGroup\app\src\main\AndroidManifest.xml:9:9-54
	android:icon
		ADDED from C:\scripts\LayoutGroup\app\src\main\AndroidManifest.xml:7:9-43
	android:allowBackup
		ADDED from C:\scripts\LayoutGroup\app\src\main\AndroidManifest.xml:6:9-35
	android:theme
		ADDED from C:\scripts\LayoutGroup\app\src\main\AndroidManifest.xml:11:9-40
activity#com.example.allef.layoutgroup.MainActivity
ADDED from C:\scripts\LayoutGroup\app\src\main\AndroidManifest.xml:12:9-18:20
	android:name
		ADDED from C:\scripts\LayoutGroup\app\src\main\AndroidManifest.xml:12:19-47
intent-filter#android.intent.action.MAIN+android.intent.category.LAUNCHER
ADDED from C:\scripts\LayoutGroup\app\src\main\AndroidManifest.xml:13:13-17:29
action#android.intent.action.MAIN
ADDED from C:\scripts\LayoutGroup\app\src\main\AndroidManifest.xml:14:17-69
	android:name
		ADDED from C:\scripts\LayoutGroup\app\src\main\AndroidManifest.xml:14:25-66
category#android.intent.category.LAUNCHER
ADDED from C:\scripts\LayoutGroup\app\src\main\AndroidManifest.xml:16:17-77
	android:name
		ADDED from C:\scripts\LayoutGroup\app\src\main\AndroidManifest.xml:16:27-74
activity#com.example.allef.layoutgroup.DadosPersonagem
ADDED from C:\scripts\LayoutGroup\app\src\main\AndroidManifest.xml:19:9-53
	android:name
		ADDED from C:\scripts\LayoutGroup\app\src\main\AndroidManifest.xml:19:19-50
activity#com.example.allef.layoutgroup.ListPersonagens
ADDED from C:\scripts\LayoutGroup\app\src\main\AndroidManifest.xml:20:9-53
	android:name
		ADDED from C:\scripts\LayoutGroup\app\src\main\AndroidManifest.xml:20:19-50
activity#com.example.allef.layoutgroup.CriarPersonagem
ADDED from C:\scripts\LayoutGroup\app\src\main\AndroidManifest.xml:21:9-62
	android:name
		ADDED from C:\scripts\LayoutGroup\app\src\main\AndroidManifest.xml:21:19-50
uses-sdk
INJECTED from C:\scripts\LayoutGroup\app\src\main\AndroidManifest.xml reason: use-sdk injection requested
INJECTED from C:\scripts\LayoutGroup\app\src\main\AndroidManifest.xml
INJECTED from C:\scripts\LayoutGroup\app\src\main\AndroidManifest.xml
MERGED from [com.android.support:design:26.1.0] C:\Users\Allef\.gradle\caches\transforms-1\files-1.1\design-26.1.0.aar\e46015644b85a54919ccab381f94b2d1\AndroidManifest.xml:21:5-23:62
MERGED from [com.android.support:design:26.1.0] C:\Users\Allef\.gradle\caches\transforms-1\files-1.1\design-26.1.0.aar\e46015644b85a54919ccab381f94b2d1\AndroidManifest.xml:21:5-23:62
MERGED from [com.android.support:appcompat-v7:26.1.0] C:\Users\Allef\.gradle\caches\transforms-1\files-1.1\appcompat-v7-26.1.0.aar\16a53fc188290e8f469dbf151aa7c2a7\AndroidManifest.xml:21:5-23:78
MERGED from [com.android.support:appcompat-v7:26.1.0] C:\Users\Allef\.gradle\caches\transforms-1\files-1.1\appcompat-v7-26.1.0.aar\16a53fc188290e8f469dbf151aa7c2a7\AndroidManifest.xml:21:5-23:78
MERGED from [com.android.support.constraint:constraint-layout:1.0.2] C:\Users\Allef\.gradle\caches\transforms-1\files-1.1\constraint-layout-1.0.2.aar\26831463cbd6e223f656be9b0eb9eb92\AndroidManifest.xml:5:5-7:41
MERGED from [com.android.support.constraint:constraint-layout:1.0.2] C:\Users\Allef\.gradle\caches\transforms-1\files-1.1\constraint-layout-1.0.2.aar\26831463cbd6e223f656be9b0eb9eb92\AndroidManifest.xml:5:5-7:41
MERGED from [com.android.support:animated-vector-drawable:26.1.0] C:\Users\Allef\.gradle\caches\transforms-1\files-1.1\animated-vector-drawable-26.1.0.aar\8edf31d49643e4445efb72900fc11185\AndroidManifest.xml:20:5-44
MERGED from [com.android.support:animated-vector-drawable:26.1.0] C:\Users\Allef\.gradle\caches\transforms-1\files-1.1\animated-vector-drawable-26.1.0.aar\8edf31d49643e4445efb72900fc11185\AndroidManifest.xml:20:5-44
MERGED from [com.android.support:support-vector-drawable:26.1.0] C:\Users\Allef\.gradle\caches\transforms-1\files-1.1\support-vector-drawable-26.1.0.aar\87490cc41b949d456ff45eb4c02be2ce\AndroidManifest.xml:20:5-44
MERGED from [com.android.support:support-vector-drawable:26.1.0] C:\Users\Allef\.gradle\caches\transforms-1\files-1.1\support-vector-drawable-26.1.0.aar\87490cc41b949d456ff45eb4c02be2ce\AndroidManifest.xml:20:5-44
MERGED from [com.android.support:recyclerview-v7:26.1.0] C:\Users\Allef\.gradle\caches\transforms-1\files-1.1\recyclerview-v7-26.1.0.aar\8913cdb4f61cbadd6bd8afe0d9915080\AndroidManifest.xml:20:5-44
MERGED from [com.android.support:recyclerview-v7:26.1.0] C:\Users\Allef\.gradle\caches\transforms-1\files-1.1\recyclerview-v7-26.1.0.aar\8913cdb4f61cbadd6bd8afe0d9915080\AndroidManifest.xml:20:5-44
MERGED from [com.android.support:transition:26.1.0] C:\Users\Allef\.gradle\caches\transforms-1\files-1.1\transition-26.1.0.aar\f2c2f3a50420d10fcc73f9a787bbb0aa\AndroidManifest.xml:20:5-44
MERGED from [com.android.support:transition:26.1.0] C:\Users\Allef\.gradle\caches\transforms-1\files-1.1\transition-26.1.0.aar\f2c2f3a50420d10fcc73f9a787bbb0aa\AndroidManifest.xml:20:5-44
MERGED from [com.android.support:support-v4:26.1.0] C:\Users\Allef\.gradle\caches\transforms-1\files-1.1\support-v4-26.1.0.aar\ffd42b631d4e2b50ed12801de9f0762d\AndroidManifest.xml:21:5-23:54
MERGED from [com.android.support:support-v4:26.1.0] C:\Users\Allef\.gradle\caches\transforms-1\files-1.1\support-v4-26.1.0.aar\ffd42b631d4e2b50ed12801de9f0762d\AndroidManifest.xml:21:5-23:54
MERGED from [com.android.support:support-media-compat:26.1.0] C:\Users\Allef\.gradle\caches\transforms-1\files-1.1\support-media-compat-26.1.0.aar\c33417ff3eca55e137737642bc5f390f\AndroidManifest.xml:21:5-23:63
MERGED from [com.android.support:support-media-compat:26.1.0] C:\Users\Allef\.gradle\caches\transforms-1\files-1.1\support-media-compat-26.1.0.aar\c33417ff3eca55e137737642bc5f390f\AndroidManifest.xml:21:5-23:63
MERGED from [com.android.support:support-fragment:26.1.0] C:\Users\Allef\.gradle\caches\transforms-1\files-1.1\support-fragment-26.1.0.aar\b9510132c6ca0bc2add2b445cc863d26\AndroidManifest.xml:21:5-23:60
MERGED from [com.android.support:support-fragment:26.1.0] C:\Users\Allef\.gradle\caches\transforms-1\files-1.1\support-fragment-26.1.0.aar\b9510132c6ca0bc2add2b445cc863d26\AndroidManifest.xml:21:5-23:60
MERGED from [com.android.support:support-core-utils:26.1.0] C:\Users\Allef\.gradle\caches\transforms-1\files-1.1\support-core-utils-26.1.0.aar\e1febb2a7d2065c05429714382b98ad4\AndroidManifest.xml:21:5-23:61
MERGED from [com.android.support:support-core-utils:26.1.0] C:\Users\Allef\.gradle\caches\transforms-1\files-1.1\support-core-utils-26.1.0.aar\e1febb2a7d2065c05429714382b98ad4\AndroidManifest.xml:21:5-23:61
MERGED from [com.android.support:support-core-ui:26.1.0] C:\Users\Allef\.gradle\caches\transforms-1\files-1.1\support-core-ui-26.1.0.aar\6c2964ab02483fb9c24c468f013346ed\AndroidManifest.xml:21:5-23:58
MERGED from [com.android.support:support-core-ui:26.1.0] C:\Users\Allef\.gradle\caches\transforms-1\files-1.1\support-core-ui-26.1.0.aar\6c2964ab02483fb9c24c468f013346ed\AndroidManifest.xml:21:5-23:58
MERGED from [com.android.support:support-compat:26.1.0] C:\Users\Allef\.gradle\caches\transforms-1\files-1.1\support-compat-26.1.0.aar\7876363f75790ac655bb0f59b83110cc\AndroidManifest.xml:21:5-23:58
MERGED from [com.android.support:support-compat:26.1.0] C:\Users\Allef\.gradle\caches\transforms-1\files-1.1\support-compat-26.1.0.aar\7876363f75790ac655bb0f59b83110cc\AndroidManifest.xml:21:5-23:58
MERGED from [android.arch.lifecycle:runtime:1.0.0] C:\Users\Allef\.gradle\caches\transforms-1\files-1.1\runtime-1.0.0.aar\2220491bd8190290d7732bfebb37260e\AndroidManifest.xml:20:5-22:41
MERGED from [android.arch.lifecycle:runtime:1.0.0] C:\Users\Allef\.gradle\caches\transforms-1\files-1.1\runtime-1.0.0.aar\2220491bd8190290d7732bfebb37260e\AndroidManifest.xml:20:5-22:41
INJECTED from C:\scripts\LayoutGroup\app\src\main\AndroidManifest.xml
INJECTED from C:\scripts\LayoutGroup\app\src\main\AndroidManifest.xml
	tools:overrideLibrary
		ADDED from [com.android.support:design:26.1.0] C:\Users\Allef\.gradle\caches\transforms-1\files-1.1\design-26.1.0.aar\e46015644b85a54919ccab381f94b2d1\AndroidManifest.xml:23:9-59
	android:targetSdkVersion
		INJECTED from C:\scripts\LayoutGroup\app\src\main\AndroidManifest.xml
		ADDED from C:\scripts\LayoutGroup\app\src\main\AndroidManifest.xml
		INJECTED from C:\scripts\LayoutGroup\app\src\main\AndroidManifest.xml
	android:minSdkVersion
		INJECTED from C:\scripts\LayoutGroup\app\src\main\AndroidManifest.xml
		ADDED from C:\scripts\LayoutGroup\app\src\main\AndroidManifest.xml
		INJECTED from C:\scripts\LayoutGroup\app\src\main\AndroidManifest.xml
meta-data#android.support.VERSION
ADDED from [com.android.support:design:26.1.0] C:\Users\Allef\.gradle\caches\transforms-1\files-1.1\design-26.1.0.aar\e46015644b85a54919ccab381f94b2d1\AndroidManifest.xml:26:9-28:38
MERGED from [com.android.support:appcompat-v7:26.1.0] C:\Users\Allef\.gradle\caches\transforms-1\files-1.1\appcompat-v7-26.1.0.aar\16a53fc188290e8f469dbf151aa7c2a7\AndroidManifest.xml:26:9-28:38
MERGED from [com.android.support:appcompat-v7:26.1.0] C:\Users\Allef\.gradle\caches\transforms-1\files-1.1\appcompat-v7-26.1.0.aar\16a53fc188290e8f469dbf151aa7c2a7\AndroidManifest.xml:26:9-28:38
MERGED from [com.android.support:animated-vector-drawable:26.1.0] C:\Users\Allef\.gradle\caches\transforms-1\files-1.1\animated-vector-drawable-26.1.0.aar\8edf31d49643e4445efb72900fc11185\AndroidManifest.xml:23:9-25:38
MERGED from [com.android.support:animated-vector-drawable:26.1.0] C:\Users\Allef\.gradle\caches\transforms-1\files-1.1\animated-vector-drawable-26.1.0.aar\8edf31d49643e4445efb72900fc11185\AndroidManifest.xml:23:9-25:38
MERGED from [com.android.support:support-vector-drawable:26.1.0] C:\Users\Allef\.gradle\caches\transforms-1\files-1.1\support-vector-drawable-26.1.0.aar\87490cc41b949d456ff45eb4c02be2ce\AndroidManifest.xml:23:9-25:38
MERGED from [com.android.support:support-vector-drawable:26.1.0] C:\Users\Allef\.gradle\caches\transforms-1\files-1.1\support-vector-drawable-26.1.0.aar\87490cc41b949d456ff45eb4c02be2ce\AndroidManifest.xml:23:9-25:38
MERGED from [com.android.support:recyclerview-v7:26.1.0] C:\Users\Allef\.gradle\caches\transforms-1\files-1.1\recyclerview-v7-26.1.0.aar\8913cdb4f61cbadd6bd8afe0d9915080\AndroidManifest.xml:23:9-25:38
MERGED from [com.android.support:recyclerview-v7:26.1.0] C:\Users\Allef\.gradle\caches\transforms-1\files-1.1\recyclerview-v7-26.1.0.aar\8913cdb4f61cbadd6bd8afe0d9915080\AndroidManifest.xml:23:9-25:38
MERGED from [com.android.support:transition:26.1.0] C:\Users\Allef\.gradle\caches\transforms-1\files-1.1\transition-26.1.0.aar\f2c2f3a50420d10fcc73f9a787bbb0aa\AndroidManifest.xml:23:9-25:38
MERGED from [com.android.support:transition:26.1.0] C:\Users\Allef\.gradle\caches\transforms-1\files-1.1\transition-26.1.0.aar\f2c2f3a50420d10fcc73f9a787bbb0aa\AndroidManifest.xml:23:9-25:38
MERGED from [com.android.support:support-v4:26.1.0] C:\Users\Allef\.gradle\caches\transforms-1\files-1.1\support-v4-26.1.0.aar\ffd42b631d4e2b50ed12801de9f0762d\AndroidManifest.xml:26:9-28:38
MERGED from [com.android.support:support-v4:26.1.0] C:\Users\Allef\.gradle\caches\transforms-1\files-1.1\support-v4-26.1.0.aar\ffd42b631d4e2b50ed12801de9f0762d\AndroidManifest.xml:26:9-28:38
MERGED from [com.android.support:support-media-compat:26.1.0] C:\Users\Allef\.gradle\caches\transforms-1\files-1.1\support-media-compat-26.1.0.aar\c33417ff3eca55e137737642bc5f390f\AndroidManifest.xml:26:9-28:38
MERGED from [com.android.support:support-media-compat:26.1.0] C:\Users\Allef\.gradle\caches\transforms-1\files-1.1\support-media-compat-26.1.0.aar\c33417ff3eca55e137737642bc5f390f\AndroidManifest.xml:26:9-28:38
MERGED from [com.android.support:support-fragment:26.1.0] C:\Users\Allef\.gradle\caches\transforms-1\files-1.1\support-fragment-26.1.0.aar\b9510132c6ca0bc2add2b445cc863d26\AndroidManifest.xml:26:9-28:38
MERGED from [com.android.support:support-fragment:26.1.0] C:\Users\Allef\.gradle\caches\transforms-1\files-1.1\support-fragment-26.1.0.aar\b9510132c6ca0bc2add2b445cc863d26\AndroidManifest.xml:26:9-28:38
MERGED from [com.android.support:support-core-utils:26.1.0] C:\Users\Allef\.gradle\caches\transforms-1\files-1.1\support-core-utils-26.1.0.aar\e1febb2a7d2065c05429714382b98ad4\AndroidManifest.xml:26:9-28:38
MERGED from [com.android.support:support-core-utils:26.1.0] C:\Users\Allef\.gradle\caches\transforms-1\files-1.1\support-core-utils-26.1.0.aar\e1febb2a7d2065c05429714382b98ad4\AndroidManifest.xml:26:9-28:38
MERGED from [com.android.support:support-core-ui:26.1.0] C:\Users\Allef\.gradle\caches\transforms-1\files-1.1\support-core-ui-26.1.0.aar\6c2964ab02483fb9c24c468f013346ed\AndroidManifest.xml:26:9-28:38
MERGED from [com.android.support:support-core-ui:26.1.0] C:\Users\Allef\.gradle\caches\transforms-1\files-1.1\support-core-ui-26.1.0.aar\6c2964ab02483fb9c24c468f013346ed\AndroidManifest.xml:26:9-28:38
MERGED from [com.android.support:support-compat:26.1.0] C:\Users\Allef\.gradle\caches\transforms-1\files-1.1\support-compat-26.1.0.aar\7876363f75790ac655bb0f59b83110cc\AndroidManifest.xml:26:9-28:38
MERGED from [com.android.support:support-compat:26.1.0] C:\Users\Allef\.gradle\caches\transforms-1\files-1.1\support-compat-26.1.0.aar\7876363f75790ac655bb0f59b83110cc\AndroidManifest.xml:26:9-28:38
	android:value
		ADDED from [com.android.support:design:26.1.0] C:\Users\Allef\.gradle\caches\transforms-1\files-1.1\design-26.1.0.aar\e46015644b85a54919ccab381f94b2d1\AndroidManifest.xml:28:13-35
	android:name
		ADDED from [com.android.support:design:26.1.0] C:\Users\Allef\.gradle\caches\transforms-1\files-1.1\design-26.1.0.aar\e46015644b85a54919ccab381f94b2d1\AndroidManifest.xml:27:13-51
meta-data#android.arch.lifecycle.VERSION
ADDED from [android.arch.lifecycle:runtime:1.0.0] C:\Users\Allef\.gradle\caches\transforms-1\files-1.1\runtime-1.0.0.aar\2220491bd8190290d7732bfebb37260e\AndroidManifest.xml:25:9-27:47
	android:value
		ADDED from [android.arch.lifecycle:runtime:1.0.0] C:\Users\Allef\.gradle\caches\transforms-1\files-1.1\runtime-1.0.0.aar\2220491bd8190290d7732bfebb37260e\AndroidManifest.xml:27:13-44
	android:name
		ADDED from [android.arch.lifecycle:runtime:1.0.0] C:\Users\Allef\.gradle\caches\transforms-1\files-1.1\runtime-1.0.0.aar\2220491bd8190290d7732bfebb37260e\AndroidManifest.xml:26:13-58
